{
    "fields": null,
    "label": "#cerner #radilogy",
    "name": "Radiology",
    "repo": "git@bitbucket.org:interfaceware/blankff.git",
    "sources": [
        "FileReader_Q7Lrl7tBtZYdE1"
    ]
}